Mic1 Trace of ijvm.mic1 with test.bc Wed Nov 24 12:14:08 2010

                                stack = 0, 1, 2, 6
iload 1             [15 01]     stack = 2, 0, 1, 2, 6
dup                 [59]        stack = 2, 2, 0, 1, 2, 6
ishl                [78]        stack = 4, 0, 1, 2, 6
ireturn             [ac]        stack = 4
return value: 4
